<?xml version="1.0" encoding="utf-8"?>
<!-- Generator: Adobe Illustrator 24.1.0, SVG Export Plug-In . SVG Version: 6.00 Build 0)  -->
<svg version="1.1" id="Capa_1" xmlns="http://www.w3.org/2000/svg" xmlns:xlink="http://www.w3.org/1999/xlink" x="0px" y="0px"
	 viewBox="0 0 512 512" style="enable-background:new 0 0 512 512;" xml:space="preserve">
<style type="text/css">
	.st0{fill:#FFFFFF;}
</style>
<g>
	<g>
		<path class="st0" d="M256,0C132.5,0,32,100.5,32,224c0,116,94,288,224,288s224-172,224-288C480,100.5,379.5,0,256,0z M223.8,306.2
			c-1.2,8-8,13.8-15.8,13.8c-0.7,0-1.5-0.1-2.3-0.2c-34.1-4.9-64.4-22.8-85.1-50.4c-20.7-27.6-29.4-61.6-24.5-95.7
			c1.2-8.7,9.5-14.8,18.1-13.6c34.1,4.9,64.4,22.8,85.1,50.4C220,238.1,228.7,272.1,223.8,306.2z M306.2,319.8
			c-0.7,0.1-1.5,0.2-2.3,0.2c-7.8,0-14.7-5.8-15.8-13.8c-10.1-70.5,39.1-136,109.6-146.1c4.2-0.5,8.5,0.5,11.8,3
			c3.4,2.6,5.7,6.3,6.2,10.5c4.9,34.1-3.8,68.2-24.5,95.7C370.6,297.1,340.4,315,306.2,319.8z"/>
	</g>
</g>
</svg>
